{
    "entity-type": "documents",
    "isPaginable": true,
    "resultsCount": 215,
    "pageSize": 25,
    "maxPageSize": 1000,
    "resultsCountLimit": 10000,
    "currentPageSize": 25,
    "currentPageIndex": 0,
    "currentPageOffset": 0,
    "numberOfPages": 9,
    "isPreviousPageAvailable": false,
    "isNextPageAvailable": true,
    "isLastPageAvailable": true,
    "isSortable": true,
    "hasError": false,
    "errorMessage": null,
    "totalSize": 215,
    "pageIndex": 0,
    "pageCount": 9,
    "entries": [
        {
            "entity-type": "document",
            "repository": "default",
            "uid": "83af1c86-3c8a-4588-a44a-772d7da4473c",
            "path": "file:///home/bcpsi/Bureau/appathlon/PJ/Haliday_Jonny_NOTIFCONGEBLESSE.pdf",
            "type": "NOTIFCONGEBLESSE",
            "state": "Approved",
            "parentRef": "8f0c2d71-58e3-4041-99b6-068e73fc3231",
            "isCheckedOut": true,
            "isRecord": true,
            "retainUntil": null,
            "hasLegalHold": false,
            "isUnderRetentionOrLegalHold": false,
            "isVersion": false,
            "isProxy": false,
            "changeToken": "4-0",
            "isTrashed": false,
            "title": "DemCongeMat_20240101_9957000808",
            "lastModified": "2023-04-12T12:05:23.535Z",
            "properties": {
                "ia:prenom1": "Jonny",
                "ia:dateNaissanceAgent": "1979-02-14T00:00:00.000Z",
                "ia:shadnid": null,
                "ia:dateFinEcheance": null,
                "ia:shadnomNaissance": null,
                "ia:nid": "001",
                "ia:shadprenom1": null,
                "ia:shadnomUsage": null,
                "ia:shaddateNaissanceAgent": null,
                "ia:carriere": [
                    {
                        "idRh": "22200108",
                        "categorie": "4",
                        "dateRdc": "9999-12-31T00:00:00.000Z",
                        "shadgradeStatutGeneral": null,
                        "gradeStatutGeneral": "63",
                        "shadcodeEtr": null,
                        "shadsiRh": null,
                        "oACodeAngEj": "0ACG000",
                        "shadcategorie": null,
                        "shadgradeStatutParticulier": null,
                        "shadidRh": null,
                        "gradeStatutParticulier": "GB",
                        "shadstatut": null,
                        "codeEtr": null,
                        "shaddateRdc": null,
                        "shadoACodeAngEj": null,
                        "feCodeAngUs": "05DL000",
                        "siRh": "ARH",
                        "shadfeCodeAngUs": null,
                        "statut": "44"
                    }
                ],
                "ia:nomUsage": "Haliday",
                "ia:nomNaissance": "",
                "piecejustificative:idEdoc": "4dbc18e0-d92a-11ed-7aae-a4333cb07988",
                "piecejustificative:protectionDocument": "NP_CP",
                "piecejustificative:rubriquePj": "congeFamille",
                "piecejustificative:isPdfA": true,
                "piecejustificative:typeActe": "",
                "piecejustificative:raisonRemplacement": null,
                "piecejustificative:remplacement": null,
                "piecejustificative:porteeActe": "",
                "piecejustificative:applicationVersante": "ARH",
                "piecejustificative:numeroActeOrigin": null,
                "piecejustificative:sortIssueEcheance": "Transfert vers Archipel",
                "piecejustificative:edocHash": "ab1bb5faf4a1d74f0237814c65803e63f44e852373aa82ac89713fb51133ec14",
                "piecejustificative:prenomSignataire": "",
                "piecejustificative:restrictionInternet": true,
                "piecejustificative:ficheAdministre": "61f1d788-aa46-4ebd-ab02-0615832aeceb",
                "piecejustificative:nomDeposant": "GED_ARHMONIE",
                "piecejustificative:dateEcheance": null,
                "piecejustificative:formatOrigine": null,
                "piecejustificative:idPj": null,
                "piecejustificative:filiation": "",
                "piecejustificative:idMinisteriel": "MI150",
                "piecejustificative:nomtechniqueInterministerielle": null,
                "piecejustificative:resultatDerniereVerificationIntegrite": null,
                "piecejustificative:dateEtablissement": "2024-01-01T00:00:00.000Z",
                "piecejustificative:obsolet": "non",
                "piecejustificative:idSd": null,
                "piecejustificative:raisonObsolescence": null,
                "piecejustificative:indicateurOrigine": "RDD",
                "piecejustificative:sousRubrique": null,
                "piecejustificative:dateDebutEffet": "2019-03-01T00:00:00.000Z",
                "piecejustificative:marquantGestion": [],
                "piecejustificative:fonctionSignataire": "",
                "piecejustificative:numeroChronologique": null,
                "piecejustificative:rangEnfant": "",
                "piecejustificative:nomGestionnaire": "RDD",
                "piecejustificative:dateSignatureActe": null,
                "piecejustificative:dateDerniereVerificationIntegrite": null,
                "piecejustificative:partagee": null,
                "piecejustificative:numeroChronoSD": null,
                "piecejustificative:dateDepotSD": "2023-04-12T12:05:22.620Z",
                "piecejustificative:numeroActe": null,
                "piecejustificative:prenomGestionnaire": "SSA",
                "piecejustificative:conformiteTechnique": "conforme",
                "piecejustificative:nomSignataire": "",
                "piecejustificative:idDossierAdministre": null,
                "piecejustificative:qualiteSignataire": "",
                "piecejustificative:dateValidationDepotSD": "2023-04-12T12:05:23.485Z",
                "piecejustificative:nomTechniqueDgsic": null,
                "piecejustificative:dateFinEffetDocument": "2029-01-01T00:00:00.000Z",
                "piecejustificative:dateObsolescence": null
            }
            
            
        }]}
  
